{
	"inputs" : 
	[
		{
			"path" : "CMakeLists.txt"
		},
		{
			"isGenerated" : true,
			"path" : ".cxx/RelWithDebInfo/1t13z4y6/arm64-v8a/CMakeFiles/3.18.1-g262b901/CMakeSystem.cmake"
		},
		{
			"isExternal" : true,
			"path" : "/opt/android-sdk/ndk/23.1.7779620/build/cmake/android.toolchain.cmake"
		},
		{
			"isExternal" : true,
			"path" : "/opt/android-sdk/ndk/23.1.7779620/build/cmake/android-legacy.toolchain.cmake"
		},
		{
			"isExternal" : true,
			"path" : "/opt/android-sdk/ndk/23.1.7779620/build/cmake/platforms.cmake"
		},
		{
			"isExternal" : true,
			"path" : "/opt/android-sdk/ndk/23.1.7779620/build/cmake/compiler_id.cmake"
		},
		{
			"isCMake" : true,
			"isExternal" : true,
			"path" : "/opt/android-sdk/cmake/3.18.1/share/cmake-3.18/Modules/CMakeSystemSpecificInitialize.cmake"
		},
		{
			"isCMake" : true,
			"isExternal" : true,
			"path" : "/opt/android-sdk/cmake/3.18.1/share/cmake-3.18/Modules/Platform/Android-Initialize.cmake"
		},
		{
			"isGenerated" : true,
			"path" : ".cxx/RelWithDebInfo/1t13z4y6/arm64-v8a/CMakeFiles/3.18.1-g262b901/CMakeCCompiler.cmake"
		},
		{
			"isGenerated" : true,
			"path" : ".cxx/RelWithDebInfo/1t13z4y6/arm64-v8a/CMakeFiles/3.18.1-g262b901/CMakeCXXCompiler.cmake"
		},
		{
			"isCMake" : true,
			"isExternal" : true,
			"path" : "/opt/android-sdk/cmake/3.18.1/share/cmake-3.18/Modules/CMakeSystemSpecificInformation.cmake"
		},
		{
			"isCMake" : true,
			"isExternal" : true,
			"path" : "/opt/android-sdk/cmake/3.18.1/share/cmake-3.18/Modules/CMakeGenericSystem.cmake"
		},
		{
			"isCMake" : true,
			"isExternal" : true,
			"path" : "/opt/android-sdk/cmake/3.18.1/share/cmake-3.18/Modules/CMakeInitializeConfigs.cmake"
		},
		{
			"isCMake" : true,
			"isExternal" : true,
			"path" : "/opt/android-sdk/cmake/3.18.1/share/cmake-3.18/Modules/Platform/Android.cmake"
		},
		{
			"isCMake" : true,
			"isExternal" : true,
			"path" : "/opt/android-sdk/cmake/3.18.1/share/cmake-3.18/Modules/Platform/Linux.cmake"
		},
		{
			"isCMake" : true,
			"isExternal" : true,
			"path" : "/opt/android-sdk/cmake/3.18.1/share/cmake-3.18/Modules/Platform/UnixPaths.cmake"
		},
		{
			"isCMake" : true,
			"isExternal" : true,
			"path" : "/opt/android-sdk/cmake/3.18.1/share/cmake-3.18/Modules/CMakeCInformation.cmake"
		},
		{
			"isCMake" : true,
			"isExternal" : true,
			"path" : "/opt/android-sdk/cmake/3.18.1/share/cmake-3.18/Modules/CMakeLanguageInformation.cmake"
		},
		{
			"isCMake" : true,
			"isExternal" : true,
			"path" : "/opt/android-sdk/cmake/3.18.1/share/cmake-3.18/Modules/Compiler/Clang-C.cmake"
		},
		{
			"isCMake" : true,
			"isExternal" : true,
			"path" : "/opt/android-sdk/cmake/3.18.1/share/cmake-3.18/Modules/Compiler/Clang.cmake"
		},
		{
			"isCMake" : true,
			"isExternal" : true,
			"path" : "/opt/android-sdk/cmake/3.18.1/share/cmake-3.18/Modules/Compiler/CMakeCommonCompilerMacros.cmake"
		},
		{
			"isCMake" : true,
			"isExternal" : true,
			"path" : "/opt/android-sdk/cmake/3.18.1/share/cmake-3.18/Modules/Compiler/GNU.cmake"
		},
		{
			"isCMake" : true,
			"isExternal" : true,
			"path" : "/opt/android-sdk/cmake/3.18.1/share/cmake-3.18/Modules/Compiler/CMakeCommonCompilerMacros.cmake"
		},
		{
			"isCMake" : true,
			"isExternal" : true,
			"path" : "/opt/android-sdk/cmake/3.18.1/share/cmake-3.18/Modules/Internal/CMakeCheckCompilerFlag.cmake"
		},
		{
			"isCMake" : true,
			"isExternal" : true,
			"path" : "/opt/android-sdk/cmake/3.18.1/share/cmake-3.18/Modules/CMakeCheckCompilerFlagCommonPatterns.cmake"
		},
		{
			"isCMake" : true,
			"isExternal" : true,
			"path" : "/opt/android-sdk/cmake/3.18.1/share/cmake-3.18/Modules/Platform/Android-Clang-C.cmake"
		},
		{
			"isCMake" : true,
			"isExternal" : true,
			"path" : "/opt/android-sdk/cmake/3.18.1/share/cmake-3.18/Modules/Platform/Android-Clang.cmake"
		},
		{
			"isCMake" : true,
			"isExternal" : true,
			"path" : "/opt/android-sdk/cmake/3.18.1/share/cmake-3.18/Modules/CMakeCommonLanguageInclude.cmake"
		},
		{
			"isCMake" : true,
			"isExternal" : true,
			"path" : "/opt/android-sdk/cmake/3.18.1/share/cmake-3.18/Modules/CMakeCXXInformation.cmake"
		},
		{
			"isCMake" : true,
			"isExternal" : true,
			"path" : "/opt/android-sdk/cmake/3.18.1/share/cmake-3.18/Modules/CMakeLanguageInformation.cmake"
		},
		{
			"isCMake" : true,
			"isExternal" : true,
			"path" : "/opt/android-sdk/cmake/3.18.1/share/cmake-3.18/Modules/Compiler/Clang-CXX.cmake"
		},
		{
			"isCMake" : true,
			"isExternal" : true,
			"path" : "/opt/android-sdk/cmake/3.18.1/share/cmake-3.18/Modules/Compiler/Clang.cmake"
		},
		{
			"isCMake" : true,
			"isExternal" : true,
			"path" : "/opt/android-sdk/cmake/3.18.1/share/cmake-3.18/Modules/Platform/Android-Clang-CXX.cmake"
		},
		{
			"isCMake" : true,
			"isExternal" : true,
			"path" : "/opt/android-sdk/cmake/3.18.1/share/cmake-3.18/Modules/Platform/Android-Clang.cmake"
		},
		{
			"isCMake" : true,
			"isExternal" : true,
			"path" : "/opt/android-sdk/cmake/3.18.1/share/cmake-3.18/Modules/CMakeCommonLanguageInclude.cmake"
		}
	],
	"kind" : "cmakeFiles",
	"paths" : 
	{
		"build" : "/home/penguin/Documents/Grad/bookshelf/android/app/.cxx/RelWithDebInfo/1t13z4y6/arm64-v8a",
		"source" : "/home/penguin/Documents/Grad/bookshelf/android/app"
	},
	"version" : 
	{
		"major" : 1,
		"minor" : 0
	}
}
